tg/univlome/cic/boutique/client/ProduitAcheteClient.class
tg/univlome/cic/boutique/client/PersonneClient.class
tg/univlome/cic/boutique/client/ClientClient.class
tg/univlome/cic/boutique/client/ProduitClient.class
tg/univlome/cic/boutique/client/CategorieClient.class
tg/univlome/cic/boutique/client/EmployeClient.class
tg/univlome/cic/boutique/client/Main.class
tg/univlome/cic/boutique/client/AchatClient.class
